# 3ds Max Wavefront OBJ Exporter v0.97b - (c)2007 guruware
# File Created: 16.09.2017 18:01:53

newmtl Material__59
	Ns 10.000000
	Ni 1.500000
	d 1.000000
	Tr 0.000000
	Tf 1.000000 1.000000 1.000000 
	illum 2
	Ka 0.898039 0.858824 0.192157
	Kd 0.898039 0.858824 0.192157
	Ks 0.000000 0.000000 0.000000
	Ke 0.000000 0.000000 0.000000

newmtl Material__60
	Ns 10.000000
	Ni 1.500000
	d 1.000000
	Tr 0.000000
	Tf 1.000000 1.000000 1.000000 
	illum 2
	Ka 0.827451 0.407843 0.117647
	Kd 0.827451 0.407843 0.117647
	Ks 0.000000 0.000000 0.000000
	Ke 0.000000 0.000000 0.000000

newmtl Material__61
	Ns 10.000000
	Ni 1.500000
	d 1.000000
	Tr 0.000000
	Tf 1.000000 1.000000 1.000000 
	illum 2
	Ka 0.705882 0.207843 0.239216
	Kd 0.705882 0.207843 0.239216
	Ks 0.000000 0.000000 0.000000
	Ke 0.000000 0.000000 0.000000

newmtl Material__62
	Ns 10.000000
	Ni 1.500000
	d 1.000000
	Tr 0.000000
	Tf 1.000000 1.000000 1.000000 
	illum 2
	Ka 0.243137 0.086275 0.043137
	Kd 0.243137 0.086275 0.043137
	Ks 0.000000 0.000000 0.000000
	Ke 0.000000 0.000000 0.000000

newmtl Material__63
	Ns 10.000000
	Ni 1.500000
	d 1.000000
	Tr 0.000000
	Tf 1.000000 1.000000 1.000000 
	illum 2
	Ka 0.564706 0.572549 0.596078
	Kd 0.564706 0.572549 0.596078
	Ks 0.000000 0.000000 0.000000
	Ke 0.000000 0.000000 0.000000

newmtl Material__64
	Ns 10.000000
	Ni 1.500000
	d 1.000000
	Tr 0.000000
	Tf 1.000000 1.000000 1.000000 
	illum 2
	Ka 0.062745 0.447059 0.666667
	Kd 0.062745 0.447059 0.666667
	Ks 0.000000 0.000000 0.000000
	Ke 0.000000 0.000000 0.000000
